…
``` r
transit_tidy_df= 
  transit_df|>
  janitor::clean_names() 
  
select(transit_tidy_df, line:ada, -(staffing),-(staff_hours), -(exit_only) )
```

    ## # A tibble: 1,868 × 19
    ##    line     station_name station_latitude station_longitude route1 route2 route3
    ##    <chr>    <chr>                   <dbl>             <dbl> <chr>  <chr>  <chr> 
    ##  1 4 Avenue 25th St                  40.7             -74.0 R      <NA>   <NA>  
    ##  2 4 Avenue 25th St                  40.7             -74.0 R      <NA>   <NA>  
    ##  3 4 Avenue 36th St                  40.7             -74.0 N      R      <NA>  
    ##  4 4 Avenue 36th St                  40.7             -74.0 N      R      <NA>  
    ##  5 4 Avenue 36th St                  40.7             -74.0 N      R      <NA>  
    ##  6 4 Avenue 45th St                  40.6             -74.0 R      <NA>   <NA>  
    ##  7 4 Avenue 45th St                  40.6             -74.0 R      <NA>   <NA>  
    ##  8 4 Avenue 45th St                  40.6             -74.0 R      <NA>   <NA>  
    ##  9 4 Avenue 45th St                  40.6             -74.0 R      <NA>   <NA>  
    ## 10 4 Avenue 53rd St                  40.6             -74.0 R      <NA>   <NA>  
    ## # ℹ 1,858 more rows
    ## # ℹ 12 more variables: route4 <chr>, route5 <chr>, route6 <chr>, route7 <chr>,
    ## #   route8 <dbl>, route9 <dbl>, route10 <dbl>, route11 <dbl>,
    ## #   entrance_type <chr>, entry <chr>, vending <chr>, ada <lgl>
…
How many distinct stations are there? Note that stations are identified
both by name and by line (e.g. 125th St 8th Avenue; 125st Broadway;
125st Lenox); the distinct function may be useful here.

``` r
transit_tidy_df |> 
  distinct(line, station_name)
```

    ## # A tibble: 465 × 2
    ##    line     station_name            
    ##    <chr>    <chr>                   
    ##  1 4 Avenue 25th St                 
    ##  2 4 Avenue 36th St                 
    ##  3 4 Avenue 45th St                 
    ##  4 4 Avenue 53rd St                 
    ##  5 4 Avenue 59th St                 
    ##  6 4 Avenue 77th St                 
    ##  7 4 Avenue 86th St                 
    ##  8 4 Avenue 95th St                 
    ##  9 4 Avenue 9th St                  
    ## 10 4 Avenue Atlantic Av-Barclays Ctr
    ## # ℹ 455 more rows

There are 465 distinct station names considering the two identifiers of
station name and line.

How many stations are ADA compliant?

``` r
transit_tidy_df |>
  filter(ada =="TRUE")
```

    ## # A tibble: 468 × 19
    ##    line     station_name station_latitude station_longitude route1 route2 route3
    ##    <chr>    <chr>                   <dbl>             <dbl> <chr>  <chr>  <chr> 
    ##  1 4 Avenue Atlantic Av…             40.7             -74.0 B      Q      D     
    ##  2 4 Avenue DeKalb Av                40.7             -74.0 B      Q      R     
    ##  3 4 Avenue DeKalb Av                40.7             -74.0 B      Q      R     
    ##  4 4 Avenue DeKalb Av                40.7             -74.0 B      Q      R     
    ##  5 4 Avenue DeKalb Av                40.7             -74.0 B      Q      R     
    ##  6 4 Avenue DeKalb Av                40.7             -74.0 B      Q      R     
    ##  7 4 Avenue DeKalb Av                40.7             -74.0 B      Q      R     
    ##  8 4 Avenue Pacific St               40.7             -74.0 B      Q      D     
    ##  9 4 Avenue Pacific St               40.7             -74.0 B      Q      D     
    ## 10 42nd St… Grand Centr…             40.8             -74.0 GS     4      5     
    ## # ℹ 458 more rows
    ## # ℹ 12 more variables: route4 <chr>, route5 <chr>, route6 <chr>, route7 <chr>,
    ## #   route8 <dbl>, route9 <dbl>, route10 <dbl>, route11 <dbl>,
    ## #   entrance_type <chr>, entry <chr>, vending <chr>, ada <lgl>
…
What proportion of station entrances or exits without vending allow
entrance?

- station entry = true and vending = NO (entry = “YES” )
- and station exit and vending = NO

``` r
transit_df|>
  janitor::clean_names() |>
  select( line:ada, -(staffing),-(staff_hours) ) |>
  filter(entry == "YES"| exit_only == "Yes",vending== "NO") 
```

    ## # A tibble: 117 × 20
    ##    line     station_name station_latitude station_longitude route1 route2 route3
    ##    <chr>    <chr>                   <dbl>             <dbl> <chr>  <chr>  <chr> 
    ##  1 4 Avenue 53rd St                  40.6             -74.0 R      <NA>   <NA>  
    ##  2 4 Avenue 77th St                  40.6             -74.0 R      <NA>   <NA>  
    ##  3 4 Avenue 9th St                   40.7             -74.0 F      G      R     
    ##  4 4 Avenue Bay Ridge Av             40.6             -74.0 R      <NA>   <NA>  
    ##  5 6 Avenue 7th Av                   40.7             -74.0 F      <NA>   <NA>  
    ##  6 6 Avenue 7th Av                   40.7             -74.0 F      <NA>   <NA>  
    ##  7 6 Avenue 7th Av                   40.7             -74.0 F      <NA>   <NA>  
    ##  8 6 Avenue 7th Av                   40.7             -74.0 F      <NA>   <NA>  
    ##  9 6 Avenue 7th Av                   40.7             -74.0 F      <NA>   <NA>  
    ## 10 6 Avenue 7th Av                   40.7             -74.0 F      <NA>   <NA>  
    ## # ℹ 107 more rows
    ## # ℹ 13 more variables: route4 <chr>, route5 <chr>, route6 <chr>, route7 <chr>,
    ## #   route8 <dbl>, route9 <dbl>, route10 <dbl>, route11 <dbl>,
    ## #   entrance_type <chr>, entry <chr>, exit_only <chr>, vending <chr>, ada <lgl>

- stations that allow entrance is 117.

``` r
transit_df|>
  janitor::clean_names() |>
  select( line:ada, -(staffing),-(staff_hours) ) |>
  filter(entry == "YES"| exit_only == "Yes",vending== "NO") |> 
  filter(entry=="YES")
```

    ## # A tibble: 69 × 20
    ##    line     station_name station_latitude station_longitude route1 route2 route3
    ##    <chr>    <chr>                   <dbl>             <dbl> <chr>  <chr>  <chr> 
    ##  1 4 Avenue 9th St                   40.7             -74.0 F      G      R     
    ##  2 6 Avenue 7th Av                   40.7             -74.0 F      <NA>   <NA>  
    ##  3 6 Avenue 7th Av                   40.7             -74.0 F      <NA>   <NA>  
    ##  4 6 Avenue 7th Av                   40.7             -74.0 F      <NA>   <NA>  
    ##  5 6 Avenue 7th Av                   40.7             -74.0 F      <NA>   <NA>  
    ##  6 6 Avenue 7th Av                   40.7             -74.0 F      <NA>   <NA>  
    ##  7 6 Avenue 7th Av                   40.7             -74.0 F      <NA>   <NA>  
    ##  8 6 Avenue 7th Av                   40.7             -74.0 F      <NA>   <NA>  
    ##  9 6 Avenue 7th Av                   40.7             -74.0 F      <NA>   <NA>  
    ## 10 6 Avenue Bergen St                40.7             -74.0 F      G      <NA>  
    ## # ℹ 59 more rows
    ## # ℹ 13 more variables: route4 <chr>, route5 <chr>, route6 <chr>, route7 <chr>,
    ## #   route8 <dbl>, route9 <dbl>, route10 <dbl>, route11 <dbl>,
    ## #   entrance_type <chr>, entry <chr>, exit_only <chr>, vending <chr>, ada <lgl>
…
